…
<img src="man/figures/README-unnamed-chunk-3-1.png" width="100%" />

Then we can summarize the trip movements, using `tripSummary`.

``` r
tripSum <- tripSummary(Trips = trips, Colony = colony)
#> Warning in tripSummary(Trips = trips, Colony = colony): Some trips did not
#> return to the specified return buffer around the colony. The return date
#> given for these trips refers to the last location of the trip, and NOT the
#> actual return time to the colony.

tripSum
#> # A tibble: 215 x 10
#> # Groups:   ID [41]
#>    ID    trip_id n_locs departure           return              duration
#>    <chr> <chr>    <dbl> <dttm>              <dttm>                 <dbl>
#>  1 69302 693021     274 2012-07-22 07:52:11 2012-07-22 16:11:03     8.31
#>  2 69302 693022     124 2012-07-23 12:26:22 2012-07-23 15:54:05     3.46
#>  3 69302 693023     138 2012-07-25 08:30:53 2012-07-25 12:22:53     3.87
#>  4 69304 693041    1268 2013-08-22 11:50:41 2013-08-24 23:03:50    NA   
#>  5 69305 693051      71 2013-08-22 13:08:15 2013-08-22 15:10:59     2.05
#>  6 69306 693061      37 2014-01-06 16:28:42 2014-01-06 17:32:11     1.06
#>  7 69306 693062      83 2014-01-07 14:48:24 2014-01-07 17:10:21     2.37
#>  8 69306 693063     129 2014-01-08 14:25:11 2014-01-08 17:55:22     3.50
#>  9 69306 693064      50 2014-01-08 18:08:32 2014-01-08 19:30:40     1.37
#> 10 69306 693065     155 2014-01-09 14:47:04 2014-01-09 19:21:32     4.57
#> # ... with 205 more rows, and 4 more variables: total_dist <dbl>,
#> #   max_dist <dbl>, direction <dbl>, complete <chr>
```
…
